
0.076542
0.094552
0.076542
0.040595
0.137028
0.094552
0.069732
0.040595
0.033060
0.203851
0.137028
0.129851
0.069732
0.069577
0.033338
0.033338
0.076542
0.040114
0.049217
0.049217
0.023875
0.024086
0.024086
0.046358
0.049790
0.030772
0.023868
0.024006
0.024086
0.043292
0.049790
0.082773
0.104243
0.093886
0.104243
0.167905
0.093889
0.093889
0.165423
0.167905
0.252478
0.108168
0.108168
0.169296
0.169296
0.252478
0.252478
0.347757
0.138445
0.193888
0.193888
0.221589
0.266352
0.266352
0.286593
0.286593
0.319647
0.350323
0.350323
0.371984
0.371984
0.397688
0.397688
0.425154
0.138445
0.221589
0.149066
0.149066
0.319647
0.241258
0.241258
0.180121
0.180121
0.425154
0.352042
0.352042
0.284745
0.284745
0.229246
0.229246
0.292702
0.397451
0.307807
0.307807
0.503729
0.417497
0.417497
0.331265
0.331265
0.603442
0.530281
0.530281
0.447099
0.447099
0.361287
0.361287
0.055325
0.111900
0.084199
0.084199
0.191739
0.152102
0.152102
0.138444
0.138445
0.288763
0.247997
0.247997
0.222292
0.222292
0.213591
0.213933
0.145995
0.159029
0.159029
0.231553
0.191739
0.191739
0.253474
0.253474
0.331265
0.241635
0.241635
0.298343
0.298343
0.365639
0.365639
0.437543
0.439409
0.473708
0.473708
0.546231
0.503729
0.503729
0.581519
0.581519
0.643255
0.527187
0.527187
0.611742
0.611742
0.679038
0.679038
0.723094
0.530078
0.621062
0.593360
0.593360
0.696550
0.682891
0.682891
0.643255
0.643255
0.750797
0.749450
0.755089
0.729383
0.729383
0.675966
0.675966
0.288764
0.191739
0.253474
0.253474
0.111900
0.155957
0.155957
0.223253
0.223253
0.055325
0.080467
0.080467
0.131264
0.131264
0.203851
0.203851
0.213933
0.152102
0.152102
0.138444
0.105611
0.105611
0.079906
0.079906
0.078560
0.082773
0.082773
0.045032
0.045032
0.035604
0.035645
0.035645
0.437543
0.417497
0.417497
0.331265
0.387895
0.387895
0.304713
0.304713
0.231553
0.352630
0.352630
0.270791
0.270791
0.200118
0.200118
0.145995
0.723094
0.682891
0.682891
0.643255
0.612360
0.612703
0.586997
0.586997
0.546231
0.517104
0.517104
0.496548
0.496548
0.469975
0.469975
0.439409
0.603442
0.503729
0.581519
0.581519
0.397451
0.469356
0.469356
0.536652
0.536652
0.292702
0.348898
0.348898
0.410317
0.410317
0.472283
0.472283
0.613406
0.515348
0.548402
0.548402
0.409840
0.437307
0.437307
0.463011
0.463011
0.304916
0.317890
0.317890
0.338446
0.338446
0.365018
0.365018
0.613406
0.593737
0.593737
0.515348
0.550249
0.550249
0.482953
0.482953
0.409840
0.486096
0.486096
0.424678
0.424678
0.362712
0.362712
0.304916
0.685929
0.740443
0.685929
0.654874
0.765263
0.740443
0.697966
0.654874
0.605748
0.754528
0.754373
0.703731
0.696553
0.631143
0.605748
0.542293
0.696550
0.730748
0.730751
0.758453
0.726825
0.741105
0.782345
0.785297
0.794123
0.689000
0.726825
0.752220
0.783465
0.789921
0.796783
0.779669
0.641107
0.568642
0.641107
0.667090
0.484670
0.568642
0.582517
0.663217
0.665699
0.395586
0.479797
0.482363
0.564204
0.564204
0.634875
0.634875